practica2_edc/microc.vcd
$date
	Sat Nov 26 02:19:51 2022
$end
$version
	Icarus Verilog
$end
$timescale
	10ps
$end
$scope module microc_tb $end
$var wire 1 ! zero $end
$var wire 1 " carry $end
$var wire 6 # Opcode [5:0] $end
$var reg 3 $ ALUOp [2:0] $end
$var reg 1 % clk $end
$var reg 1 & reset $end
$var reg 1 ' s_inc $end
$var reg 1 ( s_inm $end
$var reg 1 ) s_skip $end
$var reg 1 * we $end
$scope module microc1 $end
$var wire 3 + ALUOp [2:0] $end
$var wire 1 % clk $end
$var wire 1 & reset $end
$var wire 1 ' s_inc $end
$var wire 1 ( s_inm $end
$var wire 1 ) s_skip $end
$var wire 1 * we $end
$var wire 1 ! zero $end
$var wire 1 " carry $end
$var wire 8 , WD3 [7:0] $end
$var wire 4 - WA3 [3:0] $end
$var wire 8 . RD2 [7:0] $end
$var wire 8 / RD1 [7:0] $end
$var wire 4 0 RA2 [3:0] $end
$var wire 4 1 RA1 [3:0] $end
$var wire 10 2 Output_skip [9:0] $end
$var wire 10 3 Output_inc [9:0] $end
$var wire 8 4 Output_ALU [7:0] $end
$var wire 6 5 Opcode [5:0] $end
$var wire 10 6 Offset [9:0] $end
$var wire 10 7 NewPC [9:0] $end
$var wire 16 8 Instruction [15:0] $end
$var wire 8 9 Inm [7:0] $end
$var wire 10 : CurrentPC [9:0] $end
$scope module alu1 $end
$var wire 3 ; Op [2:0] $end
$var wire 8 < B [7:0] $end
$var wire 8 = A [7:0] $end
$var reg 8 > S [7:0] $end
$var reg 1 " carry $end
$var reg 1 ! zero $end
$upscope $end
$scope module memoria_instrucciones $end
$var wire 16 ? Datum [15:0] $end
$var wire 1 % clk $end
$var wire 10 @ Address [9:0] $end
$upscope $end
$scope module mux_inc $end
$var wire 10 A D0 [9:0] $end
$var wire 1 ' s $end
$var wire 10 B Y [9:0] $end
$var wire 10 C D1 [9:0] $end
$var parameter 32 D WIDTH $end
$upscope $end
$scope module mux_inm $end
$var wire 8 E D0 [7:0] $end
$var wire 8 F D1 [7:0] $end
$var wire 1 ( s $end
$var wire 8 G Y [7:0] $end
$var parameter 32 H WIDTH $end
$upscope $end
$scope module mux_skip $end
$var wire 10 I D0 [9:0] $end
$var wire 10 J D1 [9:0] $end
$var wire 1 ) s $end
$var wire 10 K Y [9:0] $end
$var parameter 32 L WIDTH $end
$upscope $end
$scope module program_counter $end
$var wire 1 % clk $end
$var wire 1 & reset $end
$var wire 10 M D [9:0] $end
$var parameter 32 N WIDTH $end
$var reg 10 O Q [9:0] $end
$upscope $end
$scope module regfile1 $end
$var wire 4 P RA1 [3:0] $end
$var wire 4 Q RA2 [3:0] $end
$var wire 4 R WA3 [3:0] $end
$var wire 8 S WD3 [7:0] $end
$var wire 1 % clk $end
$var wire 1 * we3 $end
$var wire 8 T RD2 [7:0] $end
$var wire 8 U RD1 [7:0] $end
$upscope $end
$scope module sumador_program_counter $end
$var wire 10 V A [9:0] $end
$var wire 10 W B [9:0] $end
$var wire 10 X Y [9:0] $end
$upscope $end
$upscope $end
$upscope $end
$enddefinitions $end
$comment Show the parameter values. $end
$dumpall
b1010 N
b1010 L
b1000 H
b1010 D
$end
#0
$dumpvars
bx X
bx W
bx V
bx U
bx T
bx S
bx R
bx Q
bx P
bx O
bx M
b0xx K
b10 J
b1 I
bx G
bx F
bx E
b0xx C
bx B
bx A
bx @
bx ?
bx >
bx =
bx <
bx ;
bx :
bx 9
bx 8
bx 7
bx 6
bx 5
bx 4
bx 3
b0xx 2
bx 1
bx 0
bx /
bx .
bx -
bx ,
bx +
x*
x)
x(
x'
0&
1%
bx $
bx #
x"
x!
$end
#500
b0x00xx 3
b0x00xx B
b0x00xx V
b0 /
b0 =
b0 U
b0 .
b0 <
b0 T
b10001 6
b10001 A
b0 1
b0 P
b1 0
b1 Q
b1 -
b1 R
b1 9
b1 F
b11100 #
b11100 5
b111000000010001 8
b111000000010001 ?
b0 :
b0 @
b0 O
b0 W
1&
#1000
b1 7
b1 M
b1 X
1!
b0 4
b0 >
b0 E
b1 ,
b1 G
b1 S
b1 2
b1 C
b1 K
b1 3
b1 B
b1 V
0&
b0 $
b0 +
b0 ;
1(
1*
0)
1'
#2000
0%
#4000
b111111 ,
b111111 G
b111111 S
b1111110010 6
b1111110010 A
b11 1
b11 P
b1111 0
b1111 Q
b10 -
b10 R
b111111 9
b111111 F
b0 .
b0 <
b0 T
b10 7
b10 M
b10 X
b111001111110010 8
b111001111110010 ?
b1 :
b1 @
b1 O
b1 W
1%
#6000
0%
#8000
0!
b1 4
b1 >
b1 E
b1 /
b1 =
b1 U
b111111 .
b111111 <
b111111 T
b10010 ,
b10010 G
b10010 S
b100100001 6
b100100001 A
b1 1
b1 P
b10 0
b10 Q
b1 -
b1 R
b10010 9
b10010 F
b101100 #
b101100 5
b11 7
b11 M
b11 X
b1011000100100001 8
b1011000100100001 ?
b10 :
b10 @
b10 O
b10 W
1%
#9000
1"
b11000010 4
b11000010 >
b11000010 E
b11000010 ,
b11000010 G
b11000010 S
b11 $
b11 +
b11 ;
0(
0*
#10000
0%
#12000
b0 ,
b0 G
b0 S
1!
0"
b0 4
b0 >
b0 E
b1 .
b1 <
b1 T
b100010001 6
b100010001 A
b1 0
b1 Q
b10001 9
b10001 F
b0 #
b0 5
b100 7
b100 M
b100 X
b100010001 8
b100010001 ?
b11 :
b11 @
b11 O
b11 W
1%
#13000
b10 ,
b10 G
b10 S
0!
b10 4
b10 >
b10 E
b10 $
b10 +
b10 ;
1*
#14000
0%
#16000
b1000001 ,
b1000001 G
b1000001 S
b1000001 4
b1000001 >
b1000001 E
b100100001 6
b100100001 A
b10 0
b10 Q
b10010 9
b10010 F
b101100 #
b101100 5
b10 /
b10 =
b10 U
b111111 .
b111111 <
b111111 T
b101 7
b101 M
b101 X
b1011000100100001 8
b1011000100100001 ?
b100 :
b100 @
b100 O
b100 W
1%
#17000
b110 7
b110 M
b110 X
b10 3
b10 B
b10 V
b11000011 ,
b11000011 G
b11000011 S
b10 2
b10 C
b10 K
1"
b11000011 4
b11000011 >
b11000011 E
1)
b11 $
b11 +
b11 ;
0*
#18000
b101 7
b101 M
b101 X
b1 3
b1 B
b1 V
b1 2
b1 C
b1 K
0)
0%
#20000
b0 ,
b0 G
b0 S
1!
0"
b0 4
b0 >
b0 E
b0 /
b0 =
b0 U
b0 .
b0 <
b0 T
b1111111101 6
b1111111101 A
b1111 1
b1111 P
b1111 0
b1111 Q
b1101 -
b1101 R
b11111111 9
b11111111 F
b111111 #
b111111 5
b110 7
b110 M
b110 X
b1111111111111101 8
b1111111111111101 ?
b101 :
b101 @
b101 O
b101 W
1%
#21000
b10 7
b10 M
b10 X
b1111111101 3
b1111111101 B
b1111111101 V
b0 $
b0 +
b0 ;
0'
#22000
0%
#24000
b10 ,
b10 G
b10 S
0!
b10 4
b10 >
b10 E
b100100001 3
b100100001 B
b100100001 V
b10 /
b10 =
b10 U
b111111 .
b111111 <
b111111 T
b100100001 6
b100100001 A
b1 1
b1 P
b10 0
b10 Q
b1 -
b1 R
b10010 9
b10010 F
b101100 #
b101100 5
b100100011 7
b100100011 M
b100100011 X
b1011000100100001 8
b1011000100100001 ?
b10 :
b10 @
b10 O
b10 W
1%
#25000
b11000011 ,
b11000011 G
b11000011 S
b10 2
b10 C
b10 K
1"
b11000011 4
b11000011 >
b11000011 E
b100 7
b100 M
b100 X
b10 3
b10 B
b10 V
1)
b11 $
b11 +
b11 ;
1'
#26000
b11 7
b11 M
b11 X
b1 3
b1 B
b1 V
b1 2
b1 C
b1 K
0)
0%
#28000
b0 ,
b0 G
b0 S
1!
0"
b0 4
b0 >
b0 E
b10 .
b10 <
b10 T
b100010001 6
b100010001 A
b1 0
b1 Q
b10001 9
b10001 F
b0 #
b0 5
b100 7
b100 M
b100 X
b100010001 8
b100010001 ?
b11 :
b11 @
b11 O
b11 W
1%
#29000
b100 ,
b100 G
b100 S
0!
b100 4
b100 >
b100 E
b10 $
b10 +
b10 ;
1*
#30000
0%
#32000
b1000011 ,
b1000011 G
b1000011 S
b1000011 4
b1000011 >
b1000011 E
b100100001 6
b100100001 A
b10 0
b10 Q
b10010 9
b10010 F
b101100 #
b101100 5
b100 /
b100 =
b100 U
b111111 .
b111111 <
b111111 T
b101 7
b101 M
b101 X
b1011000100100001 8
b1011000100100001 ?
b100 :
b100 @
b100 O
b100 W
1%
#33000
b110 7
b110 M
b110 X
b10 3
b10 B
b10 V
b11000101 ,
b11000101 G
b11000101 S
b10 2
b10 C
b10 K
1"
b11000101 4
b11000101 >
b11000101 E
1)
b11 $
b11 +
b11 ;
0*
#34000
b101 7
b101 M
b101 X
b1 3
b1 B
b1 V
b1 2
b1 C
b1 K
0)
0%
#36000
b0 ,
b0 G
b0 S
1!
0"
b0 4
b0 >
b0 E
b0 /
b0 =
b0 U
b0 .
b0 <
b0 T
b1111111101 6
b1111111101 A
b1111 1
b1111 P
b1111 0
b1111 Q
b1101 -
b1101 R
b11111111 9
b11111111 F
b111111 #
b111111 5
b110 7
b110 M
b110 X
b1111111111111101 8
b1111111111111101 ?
b101 :
b101 @
b101 O
b101 W
1%
#37000
b10 7
b10 M
b10 X
b1111111101 3
b1111111101 B
b1111111101 V
b0 $
b0 +
b0 ;
0'
#38000
0%
#40000
b100 ,
b100 G
b100 S
0!
b100 4
b100 >
b100 E
b100100001 3
b100100001 B
b100100001 V
b100 /
b100 =
b100 U
b111111 .
b111111 <
b111111 T
b100100001 6
b100100001 A
b1 1
b1 P
b10 0
b10 Q
b1 -
b1 R
b10010 9
b10010 F
b101100 #
b101100 5
b100100011 7
b100100011 M
b100100011 X
b1011000100100001 8
b1011000100100001 ?
b10 :
b10 @
b10 O
b10 W
1%
#41000
b11000101 ,
b11000101 G
b11000101 S
b10 2
b10 C
b10 K
1"
b11000101 4
b11000101 >
b11000101 E
b100 7
b100 M
b100 X
b10 3
b10 B
b10 V
1)
b11 $
b11 +
b11 ;
1'
#42000
b11 7
b11 M
b11 X
b1 3
b1 B
b1 V
b1 2
b1 C
b1 K
0)
0%
#44000
b0 ,
b0 G
b0 S
1!
0"
b0 4
b0 >
b0 E
b100 .
b100 <
b100 T
b100010001 6
b100010001 A
b1 0
b1 Q
b10001 9
b10001 F
b0 #
b0 5
b100 7
b100 M
b100 X
b100010001 8
b100010001 ?
b11 :
b11 @
b11 O
b11 W
1%
#45000
b1000 ,
b1000 G
b1000 S
0!
b1000 4
b1000 >
b1000 E
b10 $
b10 +
b10 ;
1*
#46000
0%
#48000
b1000111 ,
b1000111 G
b1000111 S
b1000111 4
b1000111 >
b1000111 E
b100100001 6
b100100001 A
b10 0
b10 Q
b10010 9
b10010 F
b101100 #
b101100 5
b1000 /
b1000 =
b1000 U
b111111 .
b111111 <
b111111 T
b101 7
b101 M
b101 X
b1011000100100001 8
b1011000100100001 ?
b100 :
b100 @
b100 O
b100 W
1%
#49000
b110 7
b110 M
b110 X
b10 3
b10 B
b10 V
b11001001 ,
b11001001 G
b11001001 S
b10 2
b10 C
b10 K
1"
b11001001 4
b11001001 >
b11001001 E
1)
b11 $
b11 +
b11 ;
0*
#50000
b101 7
b101 M
b101 X
b1 3
b1 B
b1 V
b1 2
b1 C
b1 K
0)
0%
#52000
b0 ,
b0 G
b0 S
1!
0"
b0 4
b0 >
b0 E
b0 /
b0 =
b0 U
b0 .
b0 <
b0 T
b1111111101 6
b1111111101 A
b1111 1
b1111 P
b1111 0
b1111 Q
b1101 -
b1101 R
b11111111 9
b11111111 F
b111111 #
b111111 5
b110 7
b110 M
b110 X
b1111111111111101 8
b1111111111111101 ?
b101 :
b101 @
b101 O
b101 W
1%
#53000
b10 7
b10 M
b10 X
b1111111101 3
b1111111101 B
b1111111101 V
b0 $
b0 +
b0 ;
0'
#54000
0%
#56000
b1000 ,
b1000 G
b1000 S
0!
b1000 4
b1000 >
b1000 E
b100100001 3
b100100001 B
b100100001 V
b1000 /
b1000 =
b1000 U
b111111 .
b111111 <
b111111 T
b100100001 6
b100100001 A
b1 1
b1 P
b10 0
b10 Q
b1 -
b1 R
b10010 9
b10010 F
b101100 #
b101100 5
b100100011 7
b100100011 M
b100100011 X
b1011000100100001 8
b1011000100100001 ?
b10 :
b10 @
b10 O
b10 W
1%
#57000
b11001001 ,
b11001001 G
b11001001 S
b10 2
b10 C
b10 K
1"
b11001001 4
b11001001 >
b11001001 E
b100 7
b100 M
b100 X
b10 3
b10 B
b10 V
1)
b11 $
b11 +
b11 ;
1'
#58000
b11 7
b11 M
b11 X
b1 3
b1 B
b1 V
b1 2
b1 C
b1 K
0)
0%
#60000
b0 ,
b0 G
b0 S
1!
0"
b0 4
b0 >
b0 E
b1000 .
b1000 <
b1000 T
b100010001 6
b100010001 A
b1 0
b1 Q
b10001 9
b10001 F
b0 #
b0 5
b100 7
b100 M
b100 X
b100010001 8
b100010001 ?
b11 :
b11 @
b11 O
b11 W
1%
#61000
b10000 ,
b10000 G
b10000 S
0!
b10000 4
b10000 >
b10000 E
b10 $
b10 +
b10 ;
1*
#62000
0%
#64000
b1001111 ,
b1001111 G
b1001111 S
b1001111 4
b1001111 >
b1001111 E
b100100001 6
b100100001 A
b10 0
b10 Q
b10010 9
b10010 F
b101100 #
b101100 5
b10000 /
b10000 =
b10000 U
b111111 .
b111111 <
b111111 T
b101 7
b101 M
b101 X
b1011000100100001 8
b1011000100100001 ?
b100 :
b100 @
b100 O
b100 W
1%
#65000
b110 7
b110 M
b110 X
b10 3
b10 B
b10 V
b11010001 ,
b11010001 G
b11010001 S
b10 2
b10 C
b10 K
1"
b11010001 4
b11010001 >
b11010001 E
1)
b11 $
b11 +
b11 ;
0*
#66000
b101 7
b101 M
b101 X
b1 3
b1 B
b1 V
b1 2
b1 C
b1 K
0)
0%
#68000
b0 ,
b0 G
b0 S
1!
0"
b0 4
b0 >
b0 E
b0 /
b0 =
b0 U
b0 .
b0 <
b0 T
b1111111101 6
b1111111101 A
b1111 1
b1111 P
b1111 0
b1111 Q
b1101 -
b1101 R
b11111111 9
b11111111 F
b111111 #
b111111 5
b110 7
b110 M
b110 X
b1111111111111101 8
b1111111111111101 ?
b101 :
b101 @
b101 O
b101 W
1%
#69000
b10 7
b10 M
b10 X
b1111111101 3
b1111111101 B
b1111111101 V
b0 $
b0 +
b0 ;
0'
#70000
0%
#72000
b10000 ,
b10000 G
b10000 S
0!
b10000 4
b10000 >
b10000 E
b100100001 3
b100100001 B
b100100001 V
b10000 /
b10000 =
b10000 U
b111111 .
b111111 <
b111111 T
b100100001 6
b100100001 A
b1 1
b1 P
b10 0
b10 Q
b1 -
b1 R
b10010 9
b10010 F
b101100 #
b101100 5
b100100011 7
b100100011 M
b100100011 X
b1011000100100001 8
b1011000100100001 ?
b10 :
b10 @
b10 O
b10 W
1%
#73000
b11010001 ,
b11010001 G
b11010001 S
b10 2
b10 C
b10 K
1"
b11010001 4
b11010001 >
b11010001 E
b100 7
b100 M
b100 X
b10 3
b10 B
b10 V
1)
b11 $
b11 +
b11 ;
1'
#74000
b11 7
b11 M
b11 X
b1 3
b1 B
b1 V
b1 2
b1 C
b1 K
0)
0%
#76000
b0 ,
b0 G
b0 S
1!
0"
b0 4
b0 >
b0 E
b10000 .
b10000 <
b10000 T
b100010001 6
b100010001 A
b1 0
b1 Q
b10001 9
b10001 F
b0 #
b0 5
b100 7
b100 M
b100 X
b100010001 8
b100010001 ?
b11 :
b11 @
b11 O
b11 W
1%
#77000
b100000 ,
b100000 G
b100000 S
0!
b100000 4
b100000 >
b100000 E
b10 $
b10 +
b10 ;
1*
#78000
0%
#80000
b1011111 ,
b1011111 G
b1011111 S
b1011111 4
b1011111 >
b1011111 E
b100100001 6
b100100001 A
b10 0
b10 Q
b10010 9
b10010 F
b101100 #
b101100 5
b100000 /
b100000 =
b100000 U
b111111 .
b111111 <
b111111 T
b101 7
b101 M
b101 X
b1011000100100001 8
b1011000100100001 ?
b100 :
b100 @
b100 O
b100 W
1%
#81000
b110 7
b110 M
b110 X
b10 3
b10 B
b10 V
b11100001 ,
b11100001 G
b11100001 S
b10 2
b10 C
b10 K
1"
b11100001 4
b11100001 >
b11100001 E
1)
b11 $
b11 +
b11 ;
0*
#82000
b101 7
b101 M
b101 X
b1 3
b1 B
b1 V
b1 2
b1 C
b1 K
0)
0%
#84000
b0 ,
b0 G
b0 S
1!
0"
b0 4
b0 >
b0 E
b0 /
b0 =
b0 U
b0 .
b0 <
b0 T
b1111111101 6
b1111111101 A
b1111 1
b1111 P
b1111 0
b1111 Q
b1101 -
b1101 R
b11111111 9
b11111111 F
b111111 #
b111111 5
b110 7
b110 M
b110 X
b1111111111111101 8
b1111111111111101 ?
b101 :
b101 @
b101 O
b101 W
1%
#85000
b10 7
b10 M
b10 X
b1111111101 3
b1111111101 B
b1111111101 V
b0 $
b0 +
b0 ;
0'
#86000
0%
#88000
b100000 ,
b100000 G
b100000 S
0!
b100000 4
b100000 >
b100000 E
b100100001 3
b100100001 B
b100100001 V
b100000 /
b100000 =
b100000 U
b111111 .
b111111 <
b111111 T
b100100001 6
b100100001 A
b1 1
b1 P
b10 0
b10 Q
b1 -
b1 R
b10010 9
b10010 F
b101100 #
b101100 5
b100100011 7
b100100011 M
b100100011 X
b1011000100100001 8
b1011000100100001 ?
b10 :
b10 @
b10 O
b10 W
1%
#89000
b11100001 ,
b11100001 G
b11100001 S
b10 2
b10 C
b10 K
1"
b11100001 4
b11100001 >
b11100001 E
b100 7
b100 M
b100 X
b10 3
b10 B
b10 V
1)
b11 $
b11 +
b11 ;
1'
#90000
b11 7
b11 M
b11 X
b1 3
b1 B
b1 V
b1 2
b1 C
b1 K
0)
0%
#92000
b0 ,
b0 G
b0 S
1!
0"
b0 4
b0 >
b0 E
b100000 .
b100000 <
b100000 T
b100010001 6
b100010001 A
b1 0
b1 Q
b10001 9
b10001 F
b0 #
b0 5
b100 7
b100 M
b100 X
b100010001 8
b100010001 ?
b11 :
b11 @
b11 O
b11 W
1%
#93000
b1000000 ,
b1000000 G
b1000000 S
0!
b1000000 4
b1000000 >
b1000000 E
b10 $
b10 +
b10 ;
1*
#94000
0%
#96000
b1111111 ,
b1111111 G
b1111111 S
b1111111 4
b1111111 >
b1111111 E
b100100001 6
b100100001 A
b10 0
b10 Q
b10010 9
b10010 F
b101100 #
b101100 5
b1000000 /
b1000000 =
b1000000 U
b111111 .
b111111 <
b111111 T
b101 7
b101 M
b101 X
b1011000100100001 8
b1011000100100001 ?
b100 :
b100 @
b100 O
b100 W
1%
#97000
b110 7
b110 M
b110 X
b10 3
b10 B
b10 V
b1 ,
b1 G
b1 S
b10 2
b10 C
b10 K
b1 4
b1 >
b1 E
1)
b11 $
b11 +
b11 ;
0*
#98000
0%
#100000
b0 ,
b0 G
b0 S
1!
b0 4
b0 >
b0 E
b0 /
b0 =
b0 U
b0 .
b0 <
b0 T
b0 6
b0 A
b0 1
b0 P
b0 0
b0 Q
b0 -
b0 R
b0 9
b0 F
b0 #
b0 5
b1000 7
b1000 M
b1000 X
b0 8
b0 ?
b110 :
b110 @
b110 O
b110 W
1%
#101000
b111 7
b111 M
b111 X
b1 3
b1 B
b1 V
b1 2
b1 C
b1 K
b10 $
b10 +
b10 ;
1*
0)
#102000
0%
#104000
b1000 7
b1000 M
b1000 X
b111 :
b111 @
b111 O
b111 W
1%
#106000
0%
#108000
b1001 7
b1001 M
b1001 X
b1000 :
b1000 @
b1000 O
b1000 W
1%
#110000
0%
#112000
b1010 7
b1010 M
b1010 X
b1001 :
b1001 @
b1001 O
b1001 W
1%
#114000
0%
#116000
b1011 7
b1011 M
b1011 X
b1010 :
b1010 @
b1010 O
b1010 W
1%
#118000
0%
#120000
b1100 7
b1100 M
b1100 X
b1011 :
b1011 @
b1011 O
b1011 W
1%
